Indian House Marketing Analysis
…
as_tibble(data_set) #displays 10 rows and as many columns as it can fit on screen in case of larger data set

## # A tibble: 29,451 x 12
##    POSTED_BY UNDER_CONSTRUCTION  RERA BHK_NO. BHK_OR_RK SQUARE_FT READY_TO_MOVE
##    <chr>                  <dbl> <dbl>   <dbl> <chr>         <dbl>         <dbl>
##  1 Owner                      0     0       2 BHK           1300.             1
##  2 Dealer                     0     0       2 BHK           1275              1
##  3 Owner                      0     0       2 BHK            933.             1
##  4 Owner                      0     1       2 BHK            930.             1
##  5 Dealer                     1     0       2 BHK            999.             0
##  6 Owner                      0     0       3 BHK           1250              1
##  7 Dealer                     0     0       3 BHK           1495.             1
##  8 Owner                      0     1       3 BHK           1181.             1
##  9 Dealer                     0     1       2 BHK           1040              1
## 10 Owner                      0     1       2 BHK            879.             1
## # i 29,441 more rows
## # i 5 more variables: RESALE <dbl>, ADDRESS <chr>, LONGITUDE <dbl>,
## #   LATITUDE <dbl>, `TARGET(PRICE_IN_LACS)` <dbl>
…
Organizing Data: Let us order the properties which are available for first time sale. Number 0 in RESALE indicates that the property is new and available in market for fresh sale.

final %>%
  arrange(RESALE)

## # A tibble: 29,451 x 12
##    POSTED_BY UNDER_CONSTRUCTION  RERA BHK_NO BHK_OR_RK SQUARE_FT   CENT
##    <chr>                  <dbl> <dbl>  <dbl> <chr>         <dbl>  <dbl>
##  1 Dealer                     0     1      2 BHK            858.  1.97 
##  2 Dealer                     1     1      1 BHK          40606. 93.4  
##  3 Builder                    1     1      1 BHK            302.  0.694
##  4 Dealer                     1     1      1 BHK            406.  0.934
##  5 Dealer                     1     1      2 BHK            906.  2.08 
##  6 Dealer                     1     1      4 BHK           1725.  3.97 
##  7 Dealer                     1     1      4 BHK           1304.  3.00 
##  8 Dealer                     1     1      2 BHK            500.  1.15 
##  9 Dealer                     1     0      3 BHK           1846.  4.25 
## 10 Dealer                     0     1      2 BHK           1500   3.45 
## # i 29,441 more rows
## # i 5 more variables: READY_TO_MOVE <dbl>, RESALE <dbl>, AREA <chr>,
## #   CITY <chr>, PRICE_IN_LAKHS <dbl>
…
Let us filter the properties which are approved and ready to move as well less then or equal to 10 Crore and start visualizing them.

library(dplyr)
data_filtered <- approved_ready_to_move %>% 
  filter(PRICE_IN_LAKHS <= 1000)
data_filtered

## # A tibble: 5,698 x 12
##    POSTED_BY UNDER_CONSTRUCTION  RERA BHK_NO BHK_OR_RK SQUARE_FT  CENT
##    <chr>                  <dbl> <dbl>  <dbl> <chr>         <dbl> <dbl>
##  1 Builder                    0     1      1 RK             222. 0.510
##  2 Dealer                     0     1      1 BHK            226. 0.519
##  3 Dealer                     0     1      1 BHK            226. 0.519
##  4 Dealer                     0     1      1 BHK            226. 0.519
##  5 Dealer                     0     1      1 BHK            290. 0.667
##  6 Dealer                     0     1      1 BHK            290. 0.667
##  7 Dealer                     0     1      1 BHK            297. 0.683
##  8 Dealer                     0     1      1 BHK            297. 0.683
##  9 Dealer                     0     1      1 BHK            297. 0.683
## 10 Dealer                     0     1      1 BHK            297. 0.683
## # i 5,688 more rows
## # i 5 more variables: READY_TO_MOVE <dbl>, RESALE <dbl>, AREA <chr>,
## #   CITY <chr>, PRICE_IN_LAKHS <dbl>
…
